<?xml version="1.0" encoding="utf-8"?>
<!-- Generator: Adobe Illustrator 18.0.0, SVG Export Plug-In . SVG Version: 6.00 Build 0)  -->
<!DOCTYPE svg PUBLIC "-//W3C//DTD SVG 1.1//EN" "http://www.w3.org/Graphics/SVG/1.1/DTD/svg11.dtd">
<svg version="1.1" id="Capa_1" xmlns="http://www.w3.org/2000/svg" xmlns:xlink="http://www.w3.org/1999/xlink" x="0px" y="0px"
	 viewBox="100 0 600 600" enable-background="new 100 0 600 600" xml:space="preserve">
<rect x="111.7" y="300" fill="#D1C584" width="576.6" height="288.3"/>
<path fill="#30995B" d="M588.3,296.4c2.3-3.6,4.2-7.5,5.7-11.6c3.6,0.7,7.2,1.1,11,1.1c32,0,58-26,58-58c0-27.1-18.6-49.9-43.8-56.3
	c7.2-9.7,11.5-21.6,11.5-34.6c0-32-26-58-58-58c-13.1,0-25.1,4.3-34.8,11.6c-12.3-10.9-28.4-17.5-46-17.5c-4.2,0-8.2,0.4-12.2,1.1
	c-8-35.2-39.4-62.3-77-62.3c-34.4,0-63.6,22-74.4,52.6c-5.1-1-10.4-1.6-15.7-1.6c-36.7,0-67.5,25-76.4,58.8v172.5L588.3,296.4z"/>
<g>
	<polygon fill="#ACD670" points="514.5,133.1 502.5,197.5 512.5,300 544.3,139.3 	"/>
	<polygon fill="#ACD670" points="568.9,190 504.7,296.4 544.3,297.1 603.1,212.8 	"/>
	<rect x="471.8" y="163.3" fill="#ACD670" width="30.3" height="136.7"/>
	<rect x="181" y="11.7" fill="#ACD670" width="28.1" height="99.1"/>
</g>
<path fill="#EF7159" d="M262.3,300c6.4-23.4,12-45.5,16.1-63.8c4.2-19,6.8-34,6.8-42c0-44.4-38.8-80.5-86.7-80.5s-86.7,36-86.7,80.5
	c0,15.8,9.8,57.9,22.8,105.8L262.3,300L262.3,300z"/>
<path fill="#ACD670" d="M397.7,300c0-41.4-33.6-75-75-75s-75,33.6-75,75H397.7z"/>
<path fill="#FFC943" d="M449.9,247.3c0-41.4-33.6-75-75-75c-33.8,0-62.5,22.4-71.8,53.2c0,0,79.8-3.5,92.2,56
	C416.4,238.7,449.9,247.3,449.9,247.3z"/>
<path fill="#A766B2" d="M472.4,300.1c1.7-4.4,2.6-9.1,2.6-14.1c0-21.3-16.8-38.5-37.5-38.5S400,264.8,400,286.1
	c0,5,0.9,9.7,2.6,14.1H472.4z"/>
<path d="M182.2,531l-0.1-0.1c-5.1-3.9-12.5-3-16.4,2.2c-3.9,5.1-3,12.5,2.2,16.4l0.1,0.1c2.1,1.6,4.6,2.4,7.1,2.4
	c3.5,0,7-1.6,9.3-4.6C188.3,542.3,187.3,534.9,182.2,531z"/>
<path d="M182.2,434.9l-0.1-0.1c-5.1-3.9-12.5-3-16.4,2.2c-3.9,5.1-3,12.5,2.2,16.4l0.1,0.1c2.1,1.6,4.6,2.4,7.1,2.4
	c3.5,0,7-1.6,9.3-4.6C188.3,446.2,187.3,438.8,182.2,434.9z"/>
<path d="M182.2,338.8l-0.1-0.1c-5.1-3.9-12.5-3-16.4,2.2c-3.9,5.1-3,12.5,2.2,16.4l0.1,0.1c2.1,1.6,4.6,2.4,7.1,2.4
	c3.5,0,7-1.6,9.3-4.6C188.3,350.1,187.3,342.7,182.2,338.8z"/>
<path d="M632.1,530.9l-0.1-0.1c-5.2-3.9-12.5-2.9-16.4,2.3c-3.9,5.2-2.9,12.5,2.3,16.4l0.1,0.1c2.1,1.6,4.6,2.4,7.1,2.4
	c3.5,0,7-1.6,9.3-4.6C638.2,542.2,637.2,534.8,632.1,530.9z"/>
<path d="M617.8,453.4l0.1,0.1c2.1,1.6,4.6,2.4,7.1,2.4c3.5,0,7-1.6,9.3-4.6c3.9-5.2,2.9-12.5-2.3-16.4l-0.1-0.1
	c-5.2-3.9-12.5-2.9-16.4,2.3C611.6,442.2,612.7,449.5,617.8,453.4z"/>
<path d="M617.8,357.3l0.1,0.1c2.1,1.6,4.6,2.4,7.1,2.4c3.5,0,7-1.6,9.3-4.6c3.9-5.2,2.9-12.5-2.3-16.4l-0.1-0.1
	c-5.2-3.9-12.5-2.9-16.4,2.3C611.6,346.1,612.7,353.4,617.8,357.3z"/>
<path d="M532.8,407.8h0.2c6.5,0,11.7-5.2,11.7-11.7s-5.2-11.7-11.7-11.7h-0.2c-6.5,0-11.7,5.2-11.7,11.7S526.4,407.8,532.8,407.8z"
	/>
<path d="M267.2,480.5H267c-6.5,0-11.7,5.2-11.7,11.7s5.2,11.7,11.7,11.7h0.2c6.5,0,11.7-5.2,11.7-11.7S273.6,480.5,267.2,480.5z"/>
<path d="M186.4,213.6c-3.1,0-6.1,1.3-8.3,3.4c-2.2,2.2-3.4,5.2-3.4,8.3c0,3.1,1.3,6.1,3.4,8.3c2.2,2.2,5.2,3.4,8.3,3.4
	c3.1,0,6.1-1.2,8.3-3.4c2.2-2.2,3.4-5.2,3.4-8.3c0-3.1-1.3-6.1-3.4-8.3C192.5,214.8,189.5,213.6,186.4,213.6z"/>
<path d="M688.3,288.3h-48.7c20.9-12,35.1-34.6,35.1-60.5c0-26.8-15.2-50.7-38.4-62.3c4-8.9,6.1-18.6,6.1-28.5
	c0-38.5-31.3-69.7-69.7-69.7c-12.1,0-23.8,3.1-34.1,8.9c-13.6-9.6-29.9-14.8-46.7-14.8c-1.1,0-2.3,0-3.4,0.1
	C476,25.3,441.5,0.1,402.6,0.1c-35.1,0-66.8,20.3-81.7,51.4c-2.8-0.3-5.6-0.4-8.4-0.4c-36.8,0-69.6,22.3-83.6,55.4
	c-2.5-0.8-5-1.4-7.6-2c1.3-15,6.1-26.5,14.2-34.2c7.1-6.7,14.2-8.1,14.5-8.2l-0.2,0l0,0c2.5-0.4,4.8-1.5,6.6-3.3
	c2.2-2.2,3.4-5.2,3.4-8.3c0-3.1-1.3-6.1-3.4-8.3c-2.2-2.2-5.2-3.4-8.3-3.4c-0.7,0-1.3,0.1-2,0.2l0,0c-7,1.1-16.5,5-25.3,12.9V11.7
	c0-6.5-5.2-11.7-11.7-11.7H181c-6.5,0-11.7,5.2-11.7,11.7v43.8c-13.5-16.5-28-26.2-29.2-26.9c-5.4-3.5-12.7-2-16.2,3.4
	c-3.5,5.4-2,12.7,3.4,16.2c0.4,0.3,35.8,24,41.1,58.2c-39.7,11.9-68.4,46.8-68.4,87.8c0,17.1,9.7,58,19.3,94.1h-7.6
	c-6.5,0-11.7,5.2-11.7,11.7v288.3c0,6.5,5.2,11.7,11.7,11.7h576.6c6.5,0,11.7-5.2,11.7-11.7V300C700,293.5,694.8,288.3,688.3,288.3z
	 M312.4,74.5c4.5,0,9,0.5,13.4,1.3c5.7,1.2,11.4-2.1,13.4-7.6c9.5-26.8,35-44.8,63.4-44.8c27.7,0,52.4,17.3,62.5,42.4
	c-31.7,11.1-54.4,41.2-54.4,76.6c0,6.5,5.2,11.7,11.7,11.7c6.5,0,11.7-5.2,11.7-11.7c0-31.8,25.9-57.7,57.7-57.7
	c14.1,0,27.7,5.2,38.3,14.5c4.2,3.7,10.4,3.9,14.8,0.6c8.1-6.1,17.7-9.2,27.8-9.2c25.5,0,46.3,20.8,46.3,46.3
	c0,10-3.2,19.6-9.1,27.6c-2.3,3.1-3,7.2-1.6,10.9c1.3,3.7,4.4,6.5,8.2,7.4c20.6,5.2,34.9,23.6,34.9,44.9c0,25.5-20.8,46.3-46.3,46.3
	c-2.9,0-5.9-0.3-8.8-0.8c-5.7-1.1-11.3,2.1-13.2,7.6c-0.9,2.6-2.1,5.1-3.4,7.4h-14.8l48-68.8c1.8-2.6,2.5-5.8,1.9-8.9
	c-0.6-3.1-2.4-5.8-5-7.6l-34.2-22.7c-2.7-1.8-5.9-2.4-9.1-1.7c-3.1,0.7-5.8,2.6-7.5,5.4l-17.1,28.3l14-70.7
	c1.2-6.3-2.8-12.5-9.1-13.8l-29.8-6.1c-3.1-0.6-6.3,0-8.9,1.8s-4.4,4.5-5,7.6l-3.8,20.5h-27.3c-6.5,0-11.7,5.2-11.7,11.7v67.4
	c-7.8-39.9-43-70.1-85.1-70.1c-19,0-37,6-52.1,17.4c-12.5,9.4-22.3,22.2-28.2,36.6c1.5-8.8,2.2-15.6,2.2-20.4
	c0-15.9-4.3-30.9-11.9-43.9c6.2-16.8,22.2-28.1,40.3-28.1c2.9,0,5.8,0.3,8.6,0.9c5.7,1.2,11.4-2.1,13.4-7.6
	c2.5-7.1,6.9-13.5,12.7-18.4c4.9-4.2,5.5-11.6,1.3-16.5c-4.2-4.9-11.6-5.5-16.5-1.3c-6.4,5.5-11.8,12.2-15.7,19.6
	c-1.2-0.1-2.5-0.1-3.7-0.1c-23.3,0-44.4,12.2-56.3,31.3c-5.6-5.4-11.8-10.1-18.6-14.1C260.6,91.1,285,74.5,312.4,74.5z M528.5,279.7
	l44.1-73.1l14,9.3l-50.5,72.4h-9.4L528.5,279.7z M513.8,233v-32.5c0.1-0.2,0.1-0.5,0.2-0.7l9.8-52.7l6.7,1.4L513.8,233z M483.4,268
	c0.1-0.4,0.1-0.9,0.1-1.4V175h6.9v113.3h-3.7c0-0.7,0-1.5,0-2.2C486.7,279.7,485.5,273.6,483.4,268z M322.7,213.3c-0.3,0-0.7,0-1,0
	c11.5-17.8,31.5-29.3,53.3-29.3c31,0,56.8,22.4,62.2,51.8c-16.2,0.1-30.6,8.3-39.5,20.8C382.7,230.7,354.7,213.3,322.7,213.3z
	 M384.8,288.3H262.3h-1.8c5.5-29.3,31.3-51.6,62.2-51.6S379.3,259,384.8,288.3z M437.5,259.3c14.2,0,25.8,12,25.8,26.8
	c0,0.7,0,1.5-0.1,2.2h-51.4c-0.1-0.7-0.1-1.5-0.1-2.2C411.7,271.3,423.3,259.3,437.5,259.3z M192.8,23.4h4.7V102
	c-1.6,0-3.1,0.1-4.7,0.1V23.4z M124.1,184.9c0.7,0.1,1.5,0.2,2.3,0.2h57.9c6.5,0,11.7-5.2,11.7-11.7s-5.2-11.7-11.7-11.7h-52
	c12.7-21.6,37.5-36.3,66.1-36.3c41.4,0,75,30.8,75,68.8c0,3.1-0.5,8.7-2.4,19.1h-46.5c-6.5,0-11.7,5.2-11.7,11.7s5.2,11.7,11.7,11.7
	h38.9c-14.2,13.3-24,31.3-26.7,51.6h-93.2c-12.8-47.8-20.1-81.9-20.1-94.1C123.4,191.1,123.7,188,124.1,184.9z M676.6,384.4H573.4
	c-6.5,0-11.7,5.2-11.7,11.7s5.2,11.7,11.7,11.7h103.1v72.7H307c-6.5,0-11.7,5.2-11.7,11.7s5.2,11.7,11.7,11.7h369.6v72.7H123.4
	v-72.7h103.1c6.5,0,11.7-5.2,11.7-11.7s-5.2-11.7-11.7-11.7H123.4v-72.7H493c6.5,0,11.7-5.2,11.7-11.7s-5.2-11.7-11.7-11.7H123.4
	v-72.7h11.1h542V384.4z"/>
<path d="M387.5,86.7h0.2c6.5,0,11.7-5.2,11.7-11.7s-5.2-11.7-11.7-11.7h-0.2c-6.5,0-11.7,5.2-11.7,11.7
	C375.8,81.5,381,86.7,387.5,86.7z"/>
</svg>
